^D:\USERS\USER\DESKTOP\VM FILES\SAMPLECREDENTIALPROVIDER\SAMPLECREDENTIALPROVIDER\X64\RELEASE\CSAMPLECREDENTIAL.OBJ|D:\USERS\USER\DESKTOP\VM FILES\SAMPLECREDENTIALPROVIDER\SAMPLECREDENTIALPROVIDER\X64\RELEASE\CSAMPLEPROVIDER.OBJ|D:\USERS\USER\DESKTOP\VM FILES\SAMPLECREDENTIALPROVIDER\SAMPLECREDENTIALPROVIDER\X64\RELEASE\DLL.OBJ|D:\USERS\USER\DESKTOP\VM FILES\SAMPLECREDENTIALPROVIDER\SAMPLECREDENTIALPROVIDER\X64\RELEASE\GUID.OBJ|D:\USERS\USER\DESKTOP\VM FILES\SAMPLECREDENTIALPROVIDER\SAMPLECREDENTIALPROVIDER\X64\RELEASE\HELPERS.OBJ|D:\USERS\USER\DESKTOP\VM FILES\SAMPLECREDENTIALPROVIDER\SAMPLECREDENTIALPROVIDER\X64\RELEASE\RESOURCES.RES|D:\USERS\USER\DESKTOP\VM FILES\SAMPLECREDENTIALPROVIDER\SAMPLECREDENTIALPROVIDER\X64\RELEASE\WINHTTP.OBJ
/OUT:"D:\USERS\USER\DESKTOP\VM FILES\SAMPLECREDENTIALPROVIDER\X64\RELEASE\MYCREDENTIALPROVIDER.DLL" /VERBOSE:Lib /INCREMENTAL:NO /NOLOGO /LIBPATH:"D:\USERS\USER\DOWNLOADS\CURL-7.69.1\CURL-7.69.1\BUILDS\LIBCURL-VC-X64-RELEASE-STATIC-IPV6-SSPI-WINSSL\LIB" /LIBPATH:"D:\USERS\USER\DOWNLOADS\VCPKG-MASTER\VCPKG-MASTER\PACKAGES\CPPRESTSDK_X64-WINDOWS\LIB" /LIBPATH:C:\OPENCV\BUILD\X64\VC14\LIB /LIBPATH:"C:\PROGRAM FILES\MICROSOFT SDKS\WINDOWS\V1.0\LIB\X64" /LIBPATH:"D:\USERS\USER\DOWNLOADS\VCPKG-MASTER\VCPKG-MASTER\INSTALLED\X64-WINDOWS\LIB" /LIBPATH:"D:\USERS\USER\DOWNLOADS\VCPKG-MASTER\VCPKG-MASTER\INSTALLED\X64-WINDOWS\LIB\MANUAL-LINK" IPHLPAPI.LIB LIBCURL_A.LIB NORMALIZ.LIB WS2_32.LIB WLDAP32.LIB CRYPT32.LIB ADVAPI32.LIB OPENCV_WORLD420.LIB SECUR32.LIB SHLWAPI.LIB GDI32.LIB OLE32.LIB USER32.LIB CREDUI.LIB KERNEL32.LIB USER32.LIB GDI32.LIB WINSPOOL.LIB COMDLG32.LIB ADVAPI32.LIB SHELL32.LIB OLE32.LIB OLEAUT32.LIB UUID.LIB ODBC32.LIB ODBCCP32.LIB "D:\USERS\USER\DOWNLOADS\VCPKG-MASTER\VCPKG-MASTER\INSTALLED\X64-WINDOWS\LIB\*.LIB" /DEF:"SAMPLECREDENTIALPROVIDER.DEF" /ASSEMBLYMODULE:SECUR32.LIB /ASSEMBLYRESOURCE:SECUR32.LIB /MANIFEST /MANIFESTUAC:"level='asInvoker' uiAccess='false'" /manifest:embed /DEBUG /PDB:"D:\USERS\USER\DESKTOP\VM FILES\SAMPLECREDENTIALPROVIDER\X64\RELEASE\MYCREDENTIALPROVIDER.PDB" /TLBID:1 /DYNAMICBASE /NXCOMPAT /IMPLIB:"D:\USERS\USER\DESKTOP\VM FILES\SAMPLECREDENTIALPROVIDER\X64\RELEASE\MYCREDENTIALPROVIDER.LIB" /MACHINE:X64 /DLL X64\RELEASE\RESOURCES.RES
X64\RELEASE\CSAMPLECREDENTIAL.OBJ
X64\RELEASE\CSAMPLEPROVIDER.OBJ
X64\RELEASE\DLL.OBJ
X64\RELEASE\GUID.OBJ
X64\RELEASE\HELPERS.OBJ
X64\RELEASE\WINHTTP.OBJ
